<svg width="40" height="40" viewBox="0 0 40 40" fill="none" xmlns="http://www.w3.org/2000/svg">
<rect x="0.5" y="0.5" width="39" height="39" rx="19.5" fill="#212121" stroke="#525252"/>
<path d="M24.8065 19.7875L19.1086 25.4836C18.8585 25.733 18.4535 25.733 18.2028 25.4836C17.9528 25.2342 17.9528 24.8291 18.2028 24.5797L23.4488 19.3356L18.2034 14.0915C17.9534 13.8421 17.9534 13.4371 18.2034 13.187C18.4535 12.9377 18.8592 12.9377 19.1092 13.187L24.8071 18.883C25.0533 19.1299 25.0533 19.5413 24.8065 19.7875Z" fill="white"/>
</svg>
